Presentation
…
Tidying data

GI_behavior %>% 
  select(1:6)

## # A tibble: 32 x 6
##    Subject Treatment   Arm Order Timing ABC_SS1
##      <dbl> <chr>     <dbl> <chr> <chr>    <dbl>
##  1     202 Pre           1 PS    Pre         14
##  2     202 Pre           1 PS    Post         3
##  3     202 Syn           2 PS    Pre         10
##  4     202 Syn           2 PS    Post        21
##  5     204 Pre           2 SP    Pre         10
##  6     204 Pre           2 SP    Post         5
##  7     204 Syn           1 SP    Pre          8
##  8     204 Syn           1 SP    Post         7
##  9     205 Pre           1 PS    Pre         11
## 10     205 Pre           1 PS    Post        12
## #  with 22 more rows
…
